<?xml version="1.0" encoding="utf-8"?>
<!-- Generator: Adobe Illustrator 16.0.4, SVG Export Plug-In . SVG Version: 6.00 Build 0)  -->
<!DOCTYPE svg PUBLIC "-//W3C//DTD SVG 1.1//EN" "http://www.w3.org/Graphics/SVG/1.1/DTD/svg11.dtd">
<svg version="1.1" id="Capa_1" xmlns="http://www.w3.org/2000/svg" xmlns:xlink="http://www.w3.org/1999/xlink" x="0px" y="0px"
	 width="37px" height="40px" viewBox="0 0 37 40" enable-background="new 0 0 37 40" xml:space="preserve">
<title>89CD5FBC-0901-4834-B812-F9EE5FF84D6C</title>
<desc>Created with sketchtool.</desc>
<g id="Propuestas">
	<g id="MVP1" transform="translate(-702.000000, -791.000000)">
		
			<g id="UI_x2F_separador_x2F_nave-star-wars-blanco" transform="translate(720.000000, 784.500000) rotate(-270.000000) translate(-720.000000, -784.500000) translate(672.000000, 765.000000)">
			<g id="Group-46" transform="translate(0.000000, 1.000000)">
				<g id="UI_x2F_icon_x2F_nave-blanco" transform="translate(54.830508, 0.000000)">
					<path id="Fill-1" d="M10.105,36.121v-0.13h0.565l0.018-0.087h0.623v0.106h0.305v-0.133h0.193c0,0-0.024,0.106,0.06,0.106h0.449
						c0.102,0,0.091-0.16,0.091-0.16h0.493v-0.106h3.894v-0.106h2.829c0,0-0.015,0.106,0.078,0.106h0.402v0.106h0.182v-0.092h0.545
						c0.091,0,0.116-0.135,0.116-0.135h1.733c0.184,0,0.224-0.074,0.23-0.106l0.002-0.012c-0.009-0.032-0.049-0.106-0.232-0.106
						h-1.733c0,0-0.025-0.133-0.116-0.133h-0.545v-0.094h-0.182v0.106h-0.402c-0.093,0-0.078,0.106-0.078,0.106h-2.829v-0.106
						h-3.894v-0.106h-0.493c0,0,0.011-0.16-0.091-0.16H11.87c-0.084,0-0.06,0.106-0.06,0.106h-0.193v-0.133h-0.305v0.106h-0.514
						l1.001-6.239l-0.234-0.201l0.273-1.557l0.545-0.16l0.194-1.117c0,0,0.273-0.06,0.507-0.099c0.234-0.041,0.371-0.259,0.371-0.52
						V21.4c0-0.379-0.409-0.399-0.409-0.399l1.83-0.418v-0.239l24.05-1.618v-1.33l-24.05-1.618v-0.238l-1.83-0.42
						c0,0,0.409-0.02,0.409-0.398v-3.772c0-0.261-0.136-0.479-0.371-0.52c-0.234-0.039-0.507-0.099-0.507-0.099l-0.194-1.118
						l-0.545-0.159l-0.273-1.558l0.234-0.2l-1.001-6.24h0.514v0.107h0.305V1.029h0.193c0,0-0.024,0.105,0.06,0.105h0.449
						c0.102,0,0.091-0.161,0.091-0.161h0.493V0.869h3.894V0.761h2.829c0,0-0.015,0.108,0.078,0.108h0.402v0.104h0.182V0.881h0.545
						c0.091,0,0.116-0.133,0.116-0.133h1.733c0.184,0,0.224-0.076,0.23-0.105l0.002-0.008c-0.009-0.037-0.049-0.113-0.232-0.113
						h-1.733c0,0-0.025-0.133-0.116-0.133h-0.545V0.297h-0.182v0.105h-0.402c-0.093,0-0.078,0.106-0.078,0.106h-2.829V0.402h-3.894
						V0.297h-0.493c0,0,0.011-0.16-0.091-0.16H11.87c-0.084,0-0.06,0.106-0.06,0.106h-0.193V0.109h-0.305v0.107h-0.623L10.67,0.129
						h-0.565V0h-1.43v0.128L8.372,0.126V0H6.533v0.124L5.569,0.123L5.433,0.322H5.024v-0.14H4.768v0.445v0.015v0.445h0.256V0.947
						h0.409l0.136,0.2H5.84L3.856,9.012H5.88v2.355H4.79v0.22H4.635v0.161L0,11.846v1.338l4.635,0.059v0.12H4.79v0.759l-0.547,0.399
						l-0.271,1.237l-0.778,0.639v3.328l0.778,0.638l0.271,1.238L4.79,22v0.757H4.635v0.123L0,22.938v1.337l4.635,0.098v0.162H4.79
						v0.22h1.09v2.355H3.856l1.984,7.864H5.569l-0.136,0.199H5.024v-0.138H4.768v0.445v0.012v0.447h0.256v-0.14h0.409l0.136,0.201
						l0.963-0.002v0.125h1.839v-0.128h0.303v0.128H10.105z"/>
				</g>
			</g>
		</g>
	</g>
</g>
</svg>
