<?xml version="1.0" encoding="utf-8"?>
<!-- Generator: Adobe Illustrator 16.0.4, SVG Export Plug-In . SVG Version: 6.00 Build 0)  -->
<!DOCTYPE svg PUBLIC "-//W3C//DTD SVG 1.1//EN" "http://www.w3.org/Graphics/SVG/1.1/DTD/svg11.dtd">
<svg version="1.1" id="Capa_1" xmlns="http://www.w3.org/2000/svg" xmlns:xlink="http://www.w3.org/1999/xlink" x="0px" y="0px"
	 width="45px" height="45px" viewBox="0 0 45 45" enable-background="new 0 0 45 45" xml:space="preserve">
<path fill="#FFFFFF" d="M22.5,5C32.149,5,40,12.851,40,22.5S32.149,40,22.5,40S5,32.149,5,22.5S12.851,5,22.5,5 M22.5,0
	C10.074,0,0,10.074,0,22.5C0,34.926,10.074,45,22.5,45C34.926,45,45,34.926,45,22.5C45,10.074,34.926,0,22.5,0L22.5,0z M18,13.281
	v20.487L31.141,22.5L18,13.281z"/>
</svg>
